<?xml version="1.0" encoding="UTF-8" standalone="no"?>
<graphml xmlns="http://graphml.graphdrawing.org/xmlns" xmlns:java="http://www.yworks.com/xml/yfiles-common/1.0/java" xmlns:sys="http://www.yworks.com/xml/yfiles-common/markup/primitives/2.0" xmlns:x="http://www.yworks.com/xml/yfiles-common/markup/2.0" xmlns:xsi="http://www.w3.org/2001/XMLSchema-instance" xmlns:y="http://www.yworks.com/xml/graphml" xmlns:yed="http://www.yworks.com/xml/yed/3" xsi:schemaLocation="http://graphml.graphdrawing.org/xmlns http://www.yworks.com/xml/schema/graphml/1.1/ygraphml.xsd">
  <!--Created by yEd 3.18.1.1-->
  <key attr.name="Description" attr.type="string" for="graph" id="d0"/>
  <key for="port" id="d1" yfiles.type="portgraphics"/>
  <key for="port" id="d2" yfiles.type="portgeometry"/>
  <key for="port" id="d3" yfiles.type="portuserdata"/>
  <key attr.name="url" attr.type="string" for="node" id="d4"/>
  <key attr.name="description" attr.type="string" for="node" id="d5"/>
  <key for="node" id="d6" yfiles.type="nodegraphics"/>
  <key for="graphml" id="d7" yfiles.type="resources"/>
  <key attr.name="url" attr.type="string" for="edge" id="d8"/>
  <key attr.name="description" attr.type="string" for="edge" id="d9"/>
  <key for="edge" id="d10" yfiles.type="edgegraphics"/>
  <graph edgedefault="directed" id="G">
    <data key="d0"/>
    <node id="n0">
      <data key="d4" xml:space="preserve"/>
      <data key="d6">
        <y:UMLNoteNode>
          <y:Geometry height="28.0" width="119.0" x="407.0" y="154.0"/>
          <y:Fill color="#FFFFFF" transparent="false"/>
          <y:BorderStyle color="#000000" type="line" width="1.0"/>
          <y:NodeLabel alignment="center" autoSizePolicy="content" fontFamily="Dialog" fontSize="12" fontStyle="plain" hasBackgroundColor="false" hasLineColor="false" height="18.1328125" horizontalTextPosition="center" iconTextGap="4" modelName="custom" textColor="#000000" verticalTextPosition="bottom" visible="true" width="77.001953125" x="20.9990234375" xml:space="preserve" y="4.93359375">LTL Property<y:LabelModel><y:SmartNodeLabelModel distance="4.0"/></y:LabelModel><y:ModelParameter><y:SmartNodeLabelModelParameter labelRatioX="0.0" labelRatioY="0.0" nodeRatioX="0.0" nodeRatioY="0.0" offsetX="0.0" offsetY="0.0" upX="0.0" upY="-1.0"/></y:ModelParameter></y:NodeLabel>
        </y:UMLNoteNode>
      </data>
    </node>
    <node id="n1">
      <data key="d6">
        <y:ShapeNode>
          <y:Geometry height="30.0" width="119.0" x="545.0" y="522.0"/>
          <y:Fill color="#FFFFFF" transparent="false"/>
          <y:BorderStyle color="#000000" raised="false" type="line" width="1.0"/>
          <y:NodeLabel alignment="center" autoSizePolicy="content" fontFamily="Dialog" fontSize="12" fontStyle="plain" hasBackgroundColor="false" hasLineColor="false" height="18.1328125" horizontalTextPosition="center" iconTextGap="4" modelName="custom" textColor="#000000" verticalTextPosition="bottom" visible="true" width="92.04296875" x="13.478515625" xml:space="preserve" y="5.93359375">Kripke Adaptor<y:LabelModel><y:SmartNodeLabelModel distance="4.0"/></y:LabelModel><y:ModelParameter><y:SmartNodeLabelModelParameter labelRatioX="0.0" labelRatioY="0.0" nodeRatioX="0.0" nodeRatioY="0.0" offsetX="0.0" offsetY="0.0" upX="0.0" upY="-1.0"/></y:ModelParameter></y:NodeLabel>
          <y:Shape type="rectangle"/>
        </y:ShapeNode>
      </data>
    </node>
    <node id="n2">
      <data key="d6">
        <y:ShapeNode>
          <y:Geometry height="30.0" width="170.0" x="519.5" y="588.0"/>
          <y:Fill color="#FFFFFF" transparent="false"/>
          <y:BorderStyle color="#000000" raised="false" type="line" width="1.0"/>
          <y:NodeLabel alignment="center" autoSizePolicy="content" fontFamily="Dialog" fontSize="12" fontStyle="plain" hasBackgroundColor="false" hasLineColor="false" height="18.1328125" horizontalTextPosition="center" iconTextGap="4" modelName="custom" textColor="#000000" verticalTextPosition="bottom" visible="true" width="156.396484375" x="6.8017578125" xml:space="preserve" y="5.93359375">Synchronous Composition<y:LabelModel><y:SmartNodeLabelModel distance="4.0"/></y:LabelModel><y:ModelParameter><y:SmartNodeLabelModelParameter labelRatioX="0.0" labelRatioY="0.0" nodeRatioX="0.0" nodeRatioY="0.0" offsetX="0.0" offsetY="0.0" upX="0.0" upY="-1.0"/></y:ModelParameter></y:NodeLabel>
          <y:Shape type="rectangle"/>
        </y:ShapeNode>
      </data>
    </node>
    <node id="n3">
      <data key="d6">
        <y:ShapeNode>
          <y:Geometry height="30.0" width="63.0" x="435.0" y="212.0"/>
          <y:Fill color="#C0C0C0" transparent="false"/>
          <y:BorderStyle hasColor="false" raised="false" type="line" width="1.0"/>
          <y:NodeLabel alignment="center" autoSizePolicy="content" fontFamily="Dialog" fontSize="12" fontStyle="plain" hasBackgroundColor="false" hasLineColor="false" height="18.1328125" horizontalTextPosition="center" iconTextGap="4" modelName="custom" textColor="#000000" verticalTextPosition="bottom" visible="true" width="55.076171875" x="3.9619140625" xml:space="preserve" y="5.93359375">ltl3buchi<y:LabelModel><y:SmartNodeLabelModel distance="4.0"/></y:LabelModel><y:ModelParameter><y:SmartNodeLabelModelParameter labelRatioX="0.0" labelRatioY="0.0" nodeRatioX="0.0" nodeRatioY="0.0" offsetX="0.0" offsetY="0.0" upX="0.0" upY="-1.0"/></y:ModelParameter></y:NodeLabel>
          <y:Shape type="rectangle"/>
        </y:ShapeNode>
      </data>
    </node>
    <node id="n4">
      <data key="d6">
        <y:ShapeNode>
          <y:Geometry height="30.0" width="121.0" x="544.0" y="654.0"/>
          <y:Fill color="#FFFFFF" transparent="false"/>
          <y:BorderStyle color="#000000" raised="false" type="line" width="1.0"/>
          <y:NodeLabel alignment="center" autoSizePolicy="content" fontFamily="Dialog" fontSize="12" fontStyle="plain" hasBackgroundColor="false" hasLineColor="false" height="18.1328125" horizontalTextPosition="center" iconTextGap="4" modelName="custom" textColor="#000000" verticalTextPosition="bottom" visible="true" width="117.068359375" x="1.9658203125" xml:space="preserve" y="5.93359375">Product Automaton<y:LabelModel><y:SmartNodeLabelModel distance="4.0"/></y:LabelModel><y:ModelParameter><y:SmartNodeLabelModelParameter labelRatioX="0.0" labelRatioY="0.0" nodeRatioX="0.0" nodeRatioY="0.0" offsetX="0.0" offsetY="0.0" upX="0.0" upY="-1.0"/></y:ModelParameter></y:NodeLabel>
          <y:Shape type="rectangle"/>
        </y:ShapeNode>
      </data>
    </node>
    <node id="n5">
      <data key="d6">
        <y:ShapeNode>
          <y:Geometry height="30.0" width="124.0" x="719.5" y="654.0"/>
          <y:Fill color="#FFFFFF" transparent="false"/>
          <y:BorderStyle color="#000000" raised="false" type="line" width="1.0"/>
          <y:NodeLabel alignment="center" autoSizePolicy="content" fontFamily="Dialog" fontSize="12" fontStyle="plain" hasBackgroundColor="false" hasLineColor="false" height="18.1328125" horizontalTextPosition="center" iconTextGap="4" modelName="custom" textColor="#000000" verticalTextPosition="bottom" visible="true" width="120.302734375" x="1.8486328125" xml:space="preserve" y="5.93359375">State-space storage<y:LabelModel><y:SmartNodeLabelModel distance="4.0"/></y:LabelModel><y:ModelParameter><y:SmartNodeLabelModelParameter labelRatioX="0.0" labelRatioY="0.0" nodeRatioX="0.0" nodeRatioY="0.0" offsetX="0.0" offsetY="0.0" upX="0.0" upY="-1.0"/></y:ModelParameter></y:NodeLabel>
          <y:Shape type="roundrectangle"/>
        </y:ShapeNode>
      </data>
    </node>
    <node id="n6">
      <data key="d6">
        <y:ShapeNode>
          <y:Geometry height="30.0" width="170.0" x="519.5" y="714.0"/>
          <y:Fill color="#808080" transparent="false"/>
          <y:BorderStyle hasColor="false" raised="false" type="line" width="1.0"/>
          <y:NodeLabel alignment="center" autoSizePolicy="content" fontFamily="Dialog" fontSize="12" fontStyle="plain" hasBackgroundColor="false" hasLineColor="false" height="18.1328125" horizontalTextPosition="center" iconTextGap="4" modelName="custom" textColor="#FFFFFF" verticalTextPosition="bottom" visible="true" width="150.091796875" x="9.9541015625" xml:space="preserve" y="5.93359375">GaiserSchoownAlgorithm<y:LabelModel><y:SmartNodeLabelModel distance="4.0"/></y:LabelModel><y:ModelParameter><y:SmartNodeLabelModelParameter labelRatioX="0.0" labelRatioY="0.0" nodeRatioX="0.0" nodeRatioY="0.0" offsetX="0.0" offsetY="0.0" upX="0.0" upY="-1.0"/></y:ModelParameter></y:NodeLabel>
          <y:Shape type="rectangle"/>
        </y:ShapeNode>
      </data>
    </node>
    <node id="n7">
      <data key="d4" xml:space="preserve"/>
      <data key="d6">
        <y:UMLNoteNode>
          <y:Geometry height="28.0" width="144.5" x="532.25" y="786.0"/>
          <y:Fill color="#FFFFFF" transparent="false"/>
          <y:BorderStyle color="#000000" type="line" width="1.0"/>
          <y:NodeLabel alignment="center" autoSizePolicy="content" fontFamily="Dialog" fontSize="12" fontStyle="plain" hasBackgroundColor="false" hasLineColor="false" height="18.1328125" horizontalTextPosition="center" iconTextGap="4" modelName="custom" textColor="#000000" verticalTextPosition="bottom" visible="true" width="109.931640625" x="17.2841796875" xml:space="preserve" y="4.93359375">Verification Result<y:LabelModel><y:SmartNodeLabelModel distance="4.0"/></y:LabelModel><y:ModelParameter><y:SmartNodeLabelModelParameter labelRatioX="0.0" labelRatioY="0.0" nodeRatioX="0.0" nodeRatioY="0.0" offsetX="0.0" offsetY="0.0" upX="0.0" upY="-1.0"/></y:ModelParameter></y:NodeLabel>
        </y:UMLNoteNode>
      </data>
    </node>
    <node id="n8" yfiles.foldertype="group">
      <data key="d4" xml:space="preserve"/>
      <data key="d5"/>
      <data key="d6">
        <y:ProxyAutoBoundsNode>
          <y:Realizers active="0">
            <y:GroupNode>
              <y:Geometry height="228.666015625" width="243.0" x="368.5" y="263.333984375"/>
              <y:Fill color="#F5F5F5" transparent="false"/>
              <y:BorderStyle color="#000000" type="dashed" width="1.0"/>
              <y:NodeLabel alignment="right" autoSizePolicy="node_width" backgroundColor="#EBEBEB" borderDistance="0.0" fontFamily="Dialog" fontSize="15" fontStyle="plain" hasLineColor="false" height="21.666015625" horizontalTextPosition="center" iconTextGap="4" modelName="internal" modelPosition="t" textColor="#000000" verticalTextPosition="bottom" visible="true" width="243.0" x="0.0" xml:space="preserve" y="0.0">Buchi Server</y:NodeLabel>
              <y:Shape type="roundrectangle"/>
              <y:State closed="false" closedHeight="50.0" closedWidth="50.0" innerGraphDisplayEnabled="false"/>
              <y:Insets bottom="15" bottomF="15.0" left="15" leftF="15.0" right="15" rightF="15.0" top="15" topF="15.0"/>
              <y:BorderInsets bottom="0" bottomF="0.0" left="3" leftF="3.0" right="0" rightF="0.0" top="0" topF="0.0"/>
            </y:GroupNode>
            <y:GroupNode>
              <y:Geometry height="50.0" width="50.0" x="0.0" y="60.0"/>
              <y:Fill color="#F5F5F5" transparent="false"/>
              <y:BorderStyle color="#000000" type="dashed" width="1.0"/>
              <y:NodeLabel alignment="right" autoSizePolicy="node_width" backgroundColor="#EBEBEB" borderDistance="0.0" fontFamily="Dialog" fontSize="15" fontStyle="plain" hasLineColor="false" height="21.666015625" horizontalTextPosition="center" iconTextGap="4" modelName="internal" modelPosition="t" textColor="#000000" verticalTextPosition="bottom" visible="true" width="63.75830078125" x="-6.879150390625" xml:space="preserve" y="0.0">Folder 1</y:NodeLabel>
              <y:Shape type="roundrectangle"/>
              <y:State closed="true" closedHeight="50.0" closedWidth="50.0" innerGraphDisplayEnabled="false"/>
              <y:Insets bottom="5" bottomF="5.0" left="5" leftF="5.0" right="5" rightF="5.0" top="5" topF="5.0"/>
              <y:BorderInsets bottom="0" bottomF="0.0" left="0" leftF="0.0" right="0" rightF="0.0" top="0" topF="0.0"/>
            </y:GroupNode>
          </y:Realizers>
        </y:ProxyAutoBoundsNode>
      </data>
      <graph edgedefault="directed" id="n8:">
        <node id="n8::n0">
          <data key="d6">
            <y:ShapeNode>
              <y:Geometry height="30.0" width="160.0" x="386.5" y="401.75"/>
              <y:Fill color="#FFFFFF" transparent="false"/>
              <y:BorderStyle color="#000000" raised="false" type="line" width="1.0"/>
              <y:NodeLabel alignment="center" autoSizePolicy="content" fontFamily="Dialog" fontSize="12" fontStyle="plain" hasBackgroundColor="false" hasLineColor="false" height="18.1328125" horizontalTextPosition="center" iconTextGap="4" modelName="custom" textColor="#000000" verticalTextPosition="bottom" visible="true" width="156.859375" x="1.5703125" xml:space="preserve" y="5.93359375">TransitionRelationAdaptor<y:LabelModel><y:SmartNodeLabelModel distance="4.0"/></y:LabelModel><y:ModelParameter><y:SmartNodeLabelModelParameter labelRatioX="0.0" labelRatioY="0.0" nodeRatioX="0.0" nodeRatioY="0.0" offsetX="0.0" offsetY="0.0" upX="0.0" upY="-1.0"/></y:ModelParameter></y:NodeLabel>
              <y:Shape type="rectangle"/>
            </y:ShapeNode>
          </data>
        </node>
        <node id="n8::n1">
          <data key="d6">
            <y:ShapeNode>
              <y:Geometry height="30.0" width="119.0" x="477.5" y="447.0"/>
              <y:Fill color="#FFFFFF" transparent="false"/>
              <y:BorderStyle color="#000000" raised="false" type="line" width="1.0"/>
              <y:NodeLabel alignment="center" autoSizePolicy="content" fontFamily="Dialog" fontSize="12" fontStyle="plain" hasBackgroundColor="false" hasLineColor="false" height="18.1328125" horizontalTextPosition="center" iconTextGap="4" modelName="custom" textColor="#000000" verticalTextPosition="bottom" visible="true" width="83.083984375" x="17.9580078125" xml:space="preserve" y="5.93359375">AtomProvider<y:LabelModel><y:SmartNodeLabelModel distance="4.0"/></y:LabelModel><y:ModelParameter><y:SmartNodeLabelModelParameter labelRatioX="0.0" labelRatioY="0.0" nodeRatioX="0.0" nodeRatioY="0.0" offsetX="0.0" offsetY="0.0" upX="0.0" upY="-1.0"/></y:ModelParameter></y:NodeLabel>
              <y:Shape type="rectangle"/>
            </y:ShapeNode>
          </data>
        </node>
        <node id="n8::n2">
          <data key="d4" xml:space="preserve"/>
          <data key="d6">
            <y:UMLNoteNode>
              <y:Geometry height="28.0" width="138.0" x="397.5" y="300.0"/>
              <y:Fill color="#FFFFFF" transparent="false"/>
              <y:BorderStyle color="#000000" type="line" width="1.0"/>
              <y:NodeLabel alignment="center" autoSizePolicy="content" fontFamily="Dialog" fontSize="12" fontStyle="plain" hasBackgroundColor="false" hasLineColor="false" height="18.1328125" horizontalTextPosition="center" iconTextGap="4" modelName="custom" textColor="#000000" verticalTextPosition="bottom" visible="true" width="100.134765625" x="18.9326171875" xml:space="preserve" y="4.93359375">BuchiAutomaton<y:LabelModel><y:SmartNodeLabelModel distance="4.0"/></y:LabelModel><y:ModelParameter><y:SmartNodeLabelModelParameter labelRatioX="0.0" labelRatioY="0.0" nodeRatioX="0.0" nodeRatioY="0.0" offsetX="0.0" offsetY="0.0" upX="0.0" upY="-1.0"/></y:ModelParameter></y:NodeLabel>
            </y:UMLNoteNode>
          </data>
        </node>
        <node id="n8::n3">
          <data key="d6">
            <y:ShapeNode>
              <y:Geometry height="30.0" width="160.0" x="386.5" y="351.0"/>
              <y:Fill color="#FFFFFF" transparent="false"/>
              <y:BorderStyle color="#000000" raised="false" type="line" width="1.0"/>
              <y:NodeLabel alignment="center" autoSizePolicy="content" fontFamily="Dialog" fontSize="12" fontStyle="plain" hasBackgroundColor="false" hasLineColor="false" height="18.1328125" horizontalTextPosition="center" iconTextGap="4" modelName="custom" textColor="#000000" verticalTextPosition="bottom" visible="true" width="62.646484375" x="48.6767578125" xml:space="preserve" y="5.93359375">Semantics<y:LabelModel><y:SmartNodeLabelModel distance="4.0"/></y:LabelModel><y:ModelParameter><y:SmartNodeLabelModelParameter labelRatioX="0.0" labelRatioY="0.0" nodeRatioX="0.0" nodeRatioY="0.0" offsetX="0.0" offsetY="0.0" upX="0.0" upY="-1.0"/></y:ModelParameter></y:NodeLabel>
              <y:Shape type="rectangle"/>
            </y:ShapeNode>
          </data>
        </node>
      </graph>
    </node>
    <node id="n9" yfiles.foldertype="group">
      <data key="d4" xml:space="preserve"/>
      <data key="d5"/>
      <data key="d6">
        <y:ProxyAutoBoundsNode>
          <y:Realizers active="0">
            <y:GroupNode>
              <y:Geometry height="228.666015625" width="330.5" x="620.8039448698919" y="263.333984375"/>
              <y:Fill color="#F5F5F5" transparent="false"/>
              <y:BorderStyle color="#000000" type="dashed" width="1.0"/>
              <y:NodeLabel alignment="right" autoSizePolicy="node_width" backgroundColor="#EBEBEB" borderDistance="0.0" fontFamily="Dialog" fontSize="15" fontStyle="plain" hasLineColor="false" height="21.666015625" horizontalTextPosition="center" iconTextGap="4" modelName="internal" modelPosition="t" textColor="#000000" verticalTextPosition="bottom" visible="true" width="330.5" x="0.0" xml:space="preserve" y="0.0">Language Server</y:NodeLabel>
              <y:Shape type="roundrectangle"/>
              <y:State closed="false" closedHeight="50.0" closedWidth="50.0" innerGraphDisplayEnabled="false"/>
              <y:Insets bottom="15" bottomF="15.0" left="15" leftF="15.0" right="15" rightF="15.0" top="15" topF="15.0"/>
              <y:BorderInsets bottom="0" bottomF="0.0" left="0" leftF="0.0" right="0" rightF="0.0" top="0" topF="0.0"/>
            </y:GroupNode>
            <y:GroupNode>
              <y:Geometry height="50.0" width="50.0" x="0.0" y="60.0"/>
              <y:Fill color="#F5F5F5" transparent="false"/>
              <y:BorderStyle color="#000000" type="dashed" width="1.0"/>
              <y:NodeLabel alignment="right" autoSizePolicy="node_width" backgroundColor="#EBEBEB" borderDistance="0.0" fontFamily="Dialog" fontSize="15" fontStyle="plain" hasLineColor="false" height="21.666015625" horizontalTextPosition="center" iconTextGap="4" modelName="internal" modelPosition="t" textColor="#000000" verticalTextPosition="bottom" visible="true" width="63.75830078125" x="-6.879150390625" xml:space="preserve" y="0.0">Folder 2</y:NodeLabel>
              <y:Shape type="roundrectangle"/>
              <y:State closed="true" closedHeight="50.0" closedWidth="50.0" innerGraphDisplayEnabled="false"/>
              <y:Insets bottom="5" bottomF="5.0" left="5" leftF="5.0" right="5" rightF="5.0" top="5" topF="5.0"/>
              <y:BorderInsets bottom="0" bottomF="0.0" left="0" leftF="0.0" right="0" rightF="0.0" top="0" topF="0.0"/>
            </y:GroupNode>
          </y:Realizers>
        </y:ProxyAutoBoundsNode>
      </data>
      <graph edgedefault="directed" id="n9:">
        <node id="n9::n0">
          <data key="d6">
            <y:ShapeNode>
              <y:Geometry height="30.0" width="160.0" x="635.8039448698919" y="407.75"/>
              <y:Fill color="#FFFFFF" transparent="false"/>
              <y:BorderStyle color="#000000" raised="false" type="line" width="1.0"/>
              <y:NodeLabel alignment="center" autoSizePolicy="content" fontFamily="Dialog" fontSize="12" fontStyle="plain" hasBackgroundColor="false" hasLineColor="false" height="18.1328125" horizontalTextPosition="center" iconTextGap="4" modelName="custom" textColor="#000000" verticalTextPosition="bottom" visible="true" width="156.859375" x="1.5703125" xml:space="preserve" y="5.93359375">TransitionRelationAdaptor<y:LabelModel><y:SmartNodeLabelModel distance="4.0"/></y:LabelModel><y:ModelParameter><y:SmartNodeLabelModelParameter labelRatioX="0.0" labelRatioY="0.0" nodeRatioX="0.0" nodeRatioY="0.0" offsetX="0.0" offsetY="0.0" upX="0.0" upY="-1.0"/></y:ModelParameter></y:NodeLabel>
              <y:Shape type="rectangle"/>
            </y:ShapeNode>
          </data>
        </node>
        <node id="n9::n1">
          <data key="d6">
            <y:ShapeNode>
              <y:Geometry height="30.0" width="119.0" x="656.3039448698919" y="351.0"/>
              <y:Fill color="#C0C0C0" transparent="false"/>
              <y:BorderStyle color="#000000" raised="false" type="line" width="1.0"/>
              <y:NodeLabel alignment="center" autoSizePolicy="content" fontFamily="Dialog" fontSize="12" fontStyle="plain" hasBackgroundColor="false" hasLineColor="false" height="18.1328125" horizontalTextPosition="center" iconTextGap="4" modelName="custom" textColor="#000000" verticalTextPosition="bottom" visible="true" width="62.646484375" x="28.1767578125" xml:space="preserve" y="5.93359375">Semantics<y:LabelModel><y:SmartNodeLabelModel distance="4.0"/></y:LabelModel><y:ModelParameter><y:SmartNodeLabelModelParameter labelRatioX="0.0" labelRatioY="0.0" nodeRatioX="0.0" nodeRatioY="0.0" offsetX="0.0" offsetY="0.0" upX="0.0" upY="-1.0"/></y:ModelParameter></y:NodeLabel>
              <y:Shape type="rectangle"/>
            </y:ShapeNode>
          </data>
        </node>
        <node id="n9::n2">
          <data key="d4" xml:space="preserve"/>
          <data key="d6">
            <y:UMLNoteNode>
              <y:Geometry height="28.0" width="119.0" x="656.3039448698919" y="300.0"/>
              <y:Fill color="#FFFFFF" transparent="false"/>
              <y:BorderStyle color="#000000" type="line" width="1.0"/>
              <y:NodeLabel alignment="center" autoSizePolicy="content" fontFamily="Dialog" fontSize="12" fontStyle="plain" hasBackgroundColor="false" hasLineColor="false" height="18.1328125" horizontalTextPosition="center" iconTextGap="4" modelName="custom" textColor="#000000" verticalTextPosition="bottom" visible="true" width="39.4140625" x="39.79296875" xml:space="preserve" y="4.93359375">Model<y:LabelModel><y:SmartNodeLabelModel distance="4.0"/></y:LabelModel><y:ModelParameter><y:SmartNodeLabelModelParameter labelRatioX="0.0" labelRatioY="0.0" nodeRatioX="0.0" nodeRatioY="0.0" offsetX="0.0" offsetY="0.0" upX="0.0" upY="-1.0"/></y:ModelParameter></y:NodeLabel>
            </y:UMLNoteNode>
          </data>
        </node>
        <node id="n9::n3">
          <data key="d6">
            <y:ShapeNode>
              <y:Geometry height="30.0" width="124.0" x="805.3039448698919" y="351.0"/>
              <y:Fill color="#C0C0C0" transparent="false"/>
              <y:BorderStyle color="#000000" raised="false" type="line" width="1.0"/>
              <y:NodeLabel alignment="center" autoSizePolicy="content" fontFamily="Dialog" fontSize="12" fontStyle="plain" hasBackgroundColor="false" hasLineColor="false" height="18.1328125" horizontalTextPosition="center" iconTextGap="4" modelName="custom" textColor="#000000" verticalTextPosition="bottom" visible="true" width="123.53125" x="0.234375" xml:space="preserve" y="5.93359375">Diagnosis Semantics<y:LabelModel><y:SmartNodeLabelModel distance="4.0"/></y:LabelModel><y:ModelParameter><y:SmartNodeLabelModelParameter labelRatioX="0.0" labelRatioY="0.0" nodeRatioX="0.0" nodeRatioY="0.0" offsetX="0.0" offsetY="0.0" upX="0.0" upY="-1.0"/></y:ModelParameter></y:NodeLabel>
              <y:Shape type="rectangle"/>
            </y:ShapeNode>
          </data>
        </node>
        <node id="n9::n4">
          <data key="d6">
            <y:ShapeNode>
              <y:Geometry height="30.0" width="138.0" x="798.3039448698919" y="447.0"/>
              <y:Fill color="#FFFFFF" transparent="false"/>
              <y:BorderStyle color="#000000" raised="false" type="line" width="1.0"/>
              <y:NodeLabel alignment="center" autoSizePolicy="content" fontFamily="Dialog" fontSize="12" fontStyle="plain" hasBackgroundColor="false" hasLineColor="false" height="18.1328125" horizontalTextPosition="center" iconTextGap="4" modelName="custom" textColor="#000000" verticalTextPosition="bottom" visible="true" width="125.078125" x="6.4609375" xml:space="preserve" y="5.93359375">AtomicPropEvaluator<y:LabelModel><y:SmartNodeLabelModel distance="4.0"/></y:LabelModel><y:ModelParameter><y:SmartNodeLabelModelParameter labelRatioX="0.0" labelRatioY="0.0" nodeRatioX="0.0" nodeRatioY="0.0" offsetX="0.0" offsetY="0.0" upX="0.0" upY="-1.0"/></y:ModelParameter></y:NodeLabel>
              <y:Shape type="rectangle"/>
            </y:ShapeNode>
          </data>
        </node>
      </graph>
    </node>
    <edge id="e0" source="n8::n1" target="n1">
      <data key="d10">
        <y:PolyLineEdge>
          <y:Path sx="36.157488739641394" sy="15.005446436304112" tx="-31.342511260358606" ty="-14.9765625"/>
          <y:LineStyle color="#000000" type="line" width="1.0"/>
          <y:Arrows source="none" target="standard"/>
          <y:BendStyle smoothed="false"/>
        </y:PolyLineEdge>
      </data>
    </edge>
    <edge id="n8::e0" source="n8::n2" target="n8::n3">
      <data key="d10">
        <y:PolyLineEdge>
          <y:Path sx="0.0" sy="0.0" tx="0.0" ty="0.0"/>
          <y:LineStyle color="#000000" type="line" width="1.0"/>
          <y:Arrows source="none" target="plain"/>
          <y:EdgeLabel alignment="center" configuration="AutoFlippingLabel" distance="2.0" fontFamily="Dialog" fontSize="12" fontStyle="plain" hasBackgroundColor="false" hasLineColor="false" height="18.1328125" horizontalTextPosition="center" iconTextGap="4" modelName="free" modelPosition="anywhere" preferredPlacement="anywhere" ratio="0.5" textColor="#000000" verticalTextPosition="bottom" visible="true" width="82.046875" x="8.4765625" xml:space="preserve" y="5.943359375">interpretedBy<y:PreferredPlacementDescriptor angle="0.0" angleOffsetOnRightSide="0" angleReference="absolute" angleRotationOnRightSide="co" distance="-1.0" frozen="true" placement="anywhere" side="anywhere" sideReference="relative_to_edge_flow"/></y:EdgeLabel>
          <y:BendStyle smoothed="false"/>
        </y:PolyLineEdge>
      </data>
    </edge>
    <edge id="e1" source="n0" target="n3">
      <data key="d10">
        <y:PolyLineEdge>
          <y:Path sx="0.0" sy="0.0" tx="0.0" ty="0.0"/>
          <y:LineStyle color="#000000" type="line" width="1.0"/>
          <y:Arrows source="none" target="standard"/>
          <y:BendStyle smoothed="false"/>
        </y:PolyLineEdge>
      </data>
    </edge>
    <edge id="e2" source="n3" target="n8::n2">
      <data key="d10">
        <y:PolyLineEdge>
          <y:Path sx="0.0" sy="0.0" tx="0.0" ty="0.0"/>
          <y:LineStyle color="#000000" type="line" width="1.0"/>
          <y:Arrows source="none" target="standard"/>
          <y:BendStyle smoothed="false"/>
        </y:PolyLineEdge>
      </data>
    </edge>
    <edge id="n9::e0" source="n9::n2" target="n9::n1">
      <data key="d10">
        <y:PolyLineEdge>
          <y:Path sx="0.0" sy="0.0" tx="0.0" ty="0.0"/>
          <y:LineStyle color="#000000" type="line" width="1.0"/>
          <y:Arrows source="none" target="plain"/>
          <y:EdgeLabel alignment="center" configuration="AutoFlippingLabel" distance="2.0" fontFamily="Dialog" fontSize="12" fontStyle="plain" hasBackgroundColor="false" hasLineColor="false" height="18.1328125" horizontalTextPosition="center" iconTextGap="4" modelName="free" modelPosition="anywhere" preferredPlacement="anywhere" ratio="0.5" textColor="#000000" verticalTextPosition="bottom" visible="true" width="82.046875" x="-91.5234477082331" xml:space="preserve" y="2.943359375">interpretedBy<y:PreferredPlacementDescriptor angle="0.0" angleOffsetOnRightSide="0" angleReference="absolute" angleRotationOnRightSide="co" distance="-1.0" frozen="true" placement="anywhere" side="anywhere" sideReference="relative_to_edge_flow"/></y:EdgeLabel>
          <y:BendStyle smoothed="false"/>
        </y:PolyLineEdge>
      </data>
    </edge>
    <edge id="e3" source="n4" target="n5">
      <data key="d10">
        <y:PolyLineEdge>
          <y:Path sx="0.0" sy="0.0" tx="0.0" ty="0.0"/>
          <y:LineStyle color="#000000" type="line" width="1.0"/>
          <y:Arrows source="none" target="none"/>
          <y:BendStyle smoothed="false"/>
        </y:PolyLineEdge>
      </data>
    </edge>
    <edge id="e4" source="n6" target="n7">
      <data key="d10">
        <y:PolyLineEdge>
          <y:Path sx="0.0" sy="0.0" tx="0.0" ty="0.0"/>
          <y:LineStyle color="#000000" type="line" width="1.0"/>
          <y:Arrows source="none" target="plain"/>
          <y:EdgeLabel alignment="center" configuration="AutoFlippingLabel" distance="2.0" fontFamily="Dialog" fontSize="12" fontStyle="plain" hasBackgroundColor="false" hasLineColor="false" height="18.1328125" horizontalTextPosition="center" iconTextGap="4" modelName="custom" preferredPlacement="anywhere" ratio="0.5" textColor="#000000" verticalTextPosition="bottom" visible="true" width="48.912109375" x="5.5439453125" xml:space="preserve" y="11.93359375">outputs<y:LabelModel><y:SmartEdgeLabelModel autoRotationEnabled="false" defaultAngle="0.0" defaultDistance="10.0"/></y:LabelModel><y:ModelParameter><y:SmartEdgeLabelModelParameter angle="0.0" distance="30.0" distanceToCenter="true" position="left" ratio="0.5" segment="0"/></y:ModelParameter><y:PreferredPlacementDescriptor angle="0.0" angleOffsetOnRightSide="0" angleReference="absolute" angleRotationOnRightSide="co" distance="-1.0" frozen="true" placement="anywhere" side="anywhere" sideReference="relative_to_edge_flow"/></y:EdgeLabel>
          <y:BendStyle smoothed="false"/>
        </y:PolyLineEdge>
      </data>
    </edge>
    <edge id="e5" source="n9::n0" target="n1">
      <data key="d9"/>
      <data key="d10">
        <y:PolyLineEdge>
          <y:Path sx="-65.15028594711089" sy="14.9789617690721" tx="46.153658922781005" ty="-15.006770402921916"/>
          <y:LineStyle color="#000000" type="line" width="1.0"/>
          <y:Arrows source="none" target="standard"/>
          <y:BendStyle smoothed="false"/>
        </y:PolyLineEdge>
      </data>
    </edge>
    <edge id="e6" source="n9::n4" target="n1">
      <data key="d9"/>
      <data key="d10">
        <y:PolyLineEdge>
          <y:Path sx="0.0" sy="0.0" tx="0.0" ty="0.0">
            <y:Point x="867.3039448698919" y="537.0"/>
          </y:Path>
          <y:LineStyle color="#000000" type="line" width="1.0"/>
          <y:Arrows source="none" target="standard"/>
          <y:BendStyle smoothed="false"/>
        </y:PolyLineEdge>
      </data>
    </edge>
    <edge id="e7" source="n1" target="n2">
      <data key="d9"/>
      <data key="d10">
        <y:PolyLineEdge>
          <y:Path sx="0.0" sy="0.0" tx="0.0" ty="0.0"/>
          <y:LineStyle color="#000000" type="line" width="1.0"/>
          <y:Arrows source="none" target="standard"/>
          <y:BendStyle smoothed="false"/>
        </y:PolyLineEdge>
      </data>
    </edge>
    <edge id="e8" source="n8::n0" target="n2">
      <data key="d9"/>
      <data key="d10">
        <y:PolyLineEdge>
          <y:Path sx="0.0" sy="0.0" tx="0.0" ty="0.0">
            <y:Point x="466.5" y="603.0"/>
          </y:Path>
          <y:LineStyle color="#000000" type="line" width="1.0"/>
          <y:Arrows source="none" target="standard"/>
          <y:BendStyle smoothed="false"/>
        </y:PolyLineEdge>
      </data>
    </edge>
    <edge id="n9::e1" source="n9::n1" target="n9::n3">
      <data key="d8" xml:space="preserve"/>
      <data key="d9"/>
      <data key="d10">
        <y:PolyLineEdge>
          <y:Path sx="0.0" sy="0.0" tx="0.0" ty="0.0"/>
          <y:LineStyle color="#000000" type="line" width="1.0"/>
          <y:Arrows source="none" target="none"/>
          <y:BendStyle smoothed="false"/>
        </y:PolyLineEdge>
      </data>
    </edge>
    <edge id="n9::e2" source="n9::n1" target="n9::n0">
      <data key="d9"/>
      <data key="d10">
        <y:PolyLineEdge>
          <y:Path sx="0.0" sy="0.0" tx="0.0" ty="0.0"/>
          <y:LineStyle color="#000000" type="line" width="1.0"/>
          <y:Arrows source="none" target="standard"/>
          <y:BendStyle smoothed="false"/>
        </y:PolyLineEdge>
      </data>
    </edge>
    <edge id="n8::e1" source="n8::n3" target="n8::n1">
      <data key="d9"/>
      <data key="d10">
        <y:PolyLineEdge>
          <y:Path sx="0.0" sy="0.0" tx="31.201889474778568" ty="-15.032574826912594">
            <y:Point x="568.2018894747786" y="366.0"/>
          </y:Path>
          <y:LineStyle color="#000000" type="line" width="1.0"/>
          <y:Arrows source="none" target="standard"/>
          <y:BendStyle smoothed="false"/>
        </y:PolyLineEdge>
      </data>
    </edge>
    <edge id="n9::e3" source="n9::n3" target="n9::n4">
      <data key="d9"/>
      <data key="d10">
        <y:PolyLineEdge>
          <y:Path sx="0.0" sy="0.0" tx="0.0" ty="0.0"/>
          <y:LineStyle color="#000000" type="line" width="1.0"/>
          <y:Arrows source="none" target="standard"/>
          <y:BendStyle smoothed="false"/>
        </y:PolyLineEdge>
      </data>
    </edge>
    <edge id="e9" source="n2" target="n4">
      <data key="d9"/>
      <data key="d10">
        <y:PolyLineEdge>
          <y:Path sx="0.0" sy="0.0" tx="0.0" ty="0.0"/>
          <y:LineStyle color="#000000" type="line" width="1.0"/>
          <y:Arrows source="none" target="standard"/>
          <y:BendStyle smoothed="false"/>
        </y:PolyLineEdge>
      </data>
    </edge>
    <edge id="e10" source="n4" target="n6">
      <data key="d9"/>
      <data key="d10">
        <y:PolyLineEdge>
          <y:Path sx="0.0" sy="0.0" tx="0.0" ty="0.0"/>
          <y:LineStyle color="#000000" type="line" width="1.0"/>
          <y:Arrows source="none" target="standard"/>
          <y:BendStyle smoothed="false"/>
        </y:PolyLineEdge>
      </data>
    </edge>
    <edge id="n8::e2" source="n8::n3" target="n8::n0">
      <data key="d9"/>
      <data key="d10">
        <y:PolyLineEdge>
          <y:Path sx="0.0" sy="0.0" tx="0.0" ty="0.0"/>
          <y:LineStyle color="#000000" type="line" width="1.0"/>
          <y:Arrows source="none" target="standard"/>
          <y:BendStyle smoothed="false"/>
        </y:PolyLineEdge>
      </data>
    </edge>
  </graph>
  <data key="d7">
    <y:Resources/>
  </data>
</graphml>
